---
http_interactions:
- request:
    method: get
    uri: https://api.bestbuy.com/v1/stores(area(80202,25))?apiKey=nysued5unnmfhft4bp5u6779&format=json&pageSize=15&show=longName,city,distance,phone
    body:
      encoding: US-ASCII
      string: ''
    headers:
      User-Agent:
      - Faraday v0.10.1
      Accept-Encoding:
      - gzip;q=1.0,deflate;q=0.6,identity;q=0.3
      Accept:
      - "*/*"
  response:
    status:
      code: 200
      message: OK
    headers:
      Access-Control-Allow-Headers:
      - origin, x-requested-with, accept
      Access-Control-Allow-Methods:
      - GET
      Access-Control-Allow-Origin:
      - "*"
      Access-Control-Max-Age:
      - '3628800'
      Content-Type:
      - application/json; charset=UTF-8
      Date:
      - Fri, 06 Jan 2017 19:00:07 GMT
      Server:
      - Best Buy Public APIs
      X-Cache-Hit:
      - 'true'
      Content-Length:
      - '2456'
      Connection:
      - keep-alive
    body:
      encoding: UTF-8
      string: |-
        {
          "from": 1,
          "to": 15,
          "total": 16,
          "currentPage": 1,
          "totalPages": 2,
          "queryTime": "0.004",
          "totalTime": "0.019",
          "partial": false,
          "canonicalUrl": "/v1/stores(area(\"80202\",25))?show=longName,city,distance,phone&format=json&apiKey=nysued5unnmfhft4bp5u6779",
          "stores": [
            {
              "longName": "Best Buy Mobile - Cherry Creek Shopping Center",
              "city": "Denver",
              "distance": 3.25,
              "phone": "303-270-9189"
            },
            {
              "longName": "Best Buy - Belmar",
              "city": "Lakewood",
              "distance": 5.28,
              "phone": "303-742-8039"
            },
            {
              "longName": "Best Buy - Colorado Blvd",
              "city": "Denver",
              "distance": 5.61,
              "phone": "303-758-5805"
            },
            {
              "longName": "Best Buy - Denver West",
              "city": "Lakewood",
              "distance": 8.38,
              "phone": "303-273-5617"
            },
            {
              "longName": "Best Buy - Westminster",
              "city": "Westminster",
              "distance": 8.54,
              "phone": "303-426-4434"
            },
            {
              "longName": "Best Buy - Northglenn",
              "city": "Denver",
              "distance": 9.12,
              "phone": "303-252-8677"
            },
            {
              "longName": "Best Buy Mobile - Town Center at Aurora",
              "city": "Aurora",
              "distance": 9.66,
              "phone": "303-326-0848"
            },
            {
              "longName": "Best Buy - Aurora",
              "city": "Aurora",
              "distance": 9.83,
              "phone": "303-338-5797"
            },
            {
              "longName": "Best Buy - Littleton",
              "city": "Littleton",
              "distance": 10.45,
              "phone": "303-932-7830"
            },
            {
              "longName": "Best Buy - Southglenn",
              "city": "Centennial",
              "distance": 11.0,
              "phone": "303-797-3246"
            },
            {
              "longName": "Best Buy - I70 & Tower Rd",
              "city": "Aurora",
              "distance": 11.73,
              "phone": "303-373-9284"
            },
            {
              "longName": "Best Buy Mobile - Flatiron Crossing Mall ",
              "city": "Broomfield",
              "distance": 14.44,
              "phone": "303-466-8624"
            },
            {
              "longName": "Best Buy - S.E. Denver",
              "city": "Lone Tree",
              "distance": 14.98,
              "phone": "303-649-9474"
            },
            {
              "longName": "Best Buy - S.E. Aurora",
              "city": "Aurora",
              "distance": 18.51,
              "phone": "303-693-0166"
            },
            {
              "longName": "Best Buy - Parker",
              "city": "Parker",
              "distance": 20.85,
              "phone": "303-840-5501"
            }
          ],
          "warnings": "Distances are in terms of miles (default)"
        }
    http_version: 
  recorded_at: Fri, 06 Jan 2017 19:00:07 GMT
recorded_with: VCR 3.0.3
